<svg version="1.1" xmlns="http://www.w3.org/2000/svg" xmlns:xlink="http://www.w3.org/1999/xlink" x="0px" y="0px" viewBox="0 0 64 64">


    <g id="icon-arrow-right" viewBox="0 0 11.68 8.71">
        <g class="cls-2">
            <polyline class="cls-3" points="6.99 0.35 10.97 4.33 6.94 8.36"/>
            <line class="cls-3" x1="10.97" y1="4.33" y2="4.33"/>
        </g>
    </g>

    <symbol id="icon-" viewBox="0 0 333.84 410">

    </symbol>

</svg>